{
    "label": "React Interview Que/Ans",
    "position": 30,
    "link": {
      "type": "generated-index",
      "description": "5 minutes to learn the most important RoadMap for React Mastery."
    }
  }